{
  "RUN" : {
    "NAME" : {
      "type" : "string",
      "description" : " A string representing the name of the configuration.",
      "default" : "Noname",
      "displayName" : "Name",
      "value" : "Default Configuration"
    },
    "MAGE_NAME" : {
      "type" : "string",
      "description" : "Name of the configuration.",
      "default" : "mage.template.MyMage",
      "displayName" : "MAGE",
      "value" : "mage.template.MyMage"
    },
    "RESULTS_FOLDER_NAME" : {
      "type" : "string",
      "description" : "The path to the folder where the simulation results/data will be stored.",
      "default" : "./data/output",
      "displayName" : "Results Folder",
      "value" : "./data/output"
    },
    "NUMBER_OF_EPISODES" : {
      "type" : "integer",
      "description" : "This integer value indicates the number of times the simulation should be repeated.",
      "minimum" : 1,
      "multipleOf" : 1,
      "default" : 1,
      "displayName" : "Episodes",
      "value" : 1
    },
    "STEP_DELAY" : {
      "type" : "integer",
      "description" : "The integer value that represents the delay between steps in milliseconds.",
      "minimum" : 10,
      "maximum" : 200,
      "multipleOf" : 10,
      "default" : 50,
      "displayName" : "Step Delay (ms)",
      "value" : 10
    },
    "TIMEOUT_TICK" : {
      "type" : "integer",
      "description" : " The integer value that represents the maximum duration for the simulation before it's forced to stop. ",
      "minimum" : 0,
      "multipleOf" : 1,
      "default" : 2500,
      "displayName" : "Time out (tick)",
      "value" : 100
    }
  }
}